<?xml version="1.0" encoding="utf-8"?>
<!-- Generator: Adobe Illustrator 19.0.0, SVG Export Plug-In . SVG Version: 6.00 Build 0)  -->




<svg xmlns="http://www.w3.org/2000/svg" xmlns:xlink="http://www.w3.org/1999/xlink" version="1.1" id="Layer_1" x="0px" y="0px" height="100px" width="100px" viewBox="-199 101 100 100" style="enable-background:new -199 101 100 100;" xml:space="preserve">
<style type="text/css">
	.st0{opacity:0.13;enable-background:new    ;}
	.st1{fill:url(#SVGID_1_);}
</style>
<title>Layer 1</title>
<g id="svg_3" class="st0">
	<path d="M-148.1,200.8c4-3.3,6.4-6.4,8.1-9.5c1.3-2.3,2.1-4.6,3.2-6.9c0.4-0.8,0.9-1.5,1.3-2.3c0.8-1.6,2.2-3.2,5.1-4.8   c2.8-1.6,5.8-2.5,8.8-3.1c4.8-0.9,10.4-1,15.1,0.4c3.9,1.2,6.2,3.1,7,4.8c0.7,1.4,0.6,2.9,0,4.4c-0.7,1.6-2.1,3.1-4.8,4.8   c-1.4,0.9-3,1.5-4.4,2s-2.9,0.8-4.4,1.2c-2.9,0.7-5.8,1.3-8.7,1.8C-130.6,195.4-139.3,197.1-148.1,200.8z"/>
</g>
<linearGradient id="SVGID_1_" gradientUnits="userSpaceOnUse" x1="-156.4791" y1="129.8125" x2="-128.2291" y2="199.3125">
	<stop  offset="0" style="stop-color:#2D8AD9"/>
	<stop  offset="1" style="stop-color:#539ADA"/>
</linearGradient>
<path class="st1" d="M-129.2,138.8c-1.9-2.9-4.3-5.4-7.4-7.2c-3.8-2.3-9.3-3.7-15.1-2.9c-7.1,1.1-12.4,5.1-15.5,10.1  c-1.9,3-3.2,6.7-3.3,11.3c-0.1,4.7,1.4,8.3,3.2,11.5c0.9,1.6,1.7,3.2,2.7,4.7c2.8,4.5,5.9,8.8,8.5,13.5c3.5,6.3,6.5,13,8.1,21.2  c2.4-12.3,7.9-21.3,13.7-30.2c2-3,3.9-5.9,5.5-9.2c0.8-1.7,1.7-3.2,2.2-5.1c0.6-1.8,0.9-4,0.9-6.4  C-126,145.4-127.3,141.8-129.2,138.8z M-148.2,157.9c-4.3,0-7.8-3.5-7.8-7.8s3.5-7.8,7.8-7.8s7.8,3.5,7.8,7.8  S-143.9,157.9-148.2,157.9z"/>
</svg>
